<svg width="35" height="62" viewBox="0 0 35 62" fill="none" xmlns="http://www.w3.org/2000/svg">
<path d="M29.8588 14.2727C23.098 3.18182 19.9917 1 17.4335 1C14.8754 1 11.9518 3.18182 5.19097 14.2727C-2.84891 27.3636 2.63282 41.1818 5.55642 46.6364C9.75908 54.8182 12.3172 54.8182 16.1544 54.6364H16.3372C16.7026 54.6364 17.0681 54.6364 17.4335 54.6364V60.8182C17.4335 61 17.4335 61 17.6162 61H18.3471C18.5299 61 18.7126 60.8182 18.7126 60.6364V54.4545C22.5498 54.6364 25.2907 54.6364 29.4933 46.4545C32.2342 41.1818 37.8987 27.1818 29.8588 14.2727ZM18.7126 45.3636L30.0415 33.7273C30.2242 33.5455 30.2242 33.3636 30.0415 33.3636L29.4933 32.8182H29.3106C29.3106 32.8182 29.1279 32.8182 29.1279 33L18.8953 43.5455V32.6364L28.0315 23.1818C28.2143 23 28.2143 22.8182 28.0315 22.8182L27.4834 22.2727H27.3006C27.1179 22.2727 27.1179 22.2727 27.1179 22.4545L18.8953 30.8182V21L24.1943 14.2727V14.0909C24.1943 14.0909 24.1943 13.9091 24.0116 13.9091L23.4634 13.3636C23.2807 13.1818 23.098 13.3636 23.098 13.3636L18.7126 18.6364V7.54545C18.7126 7.36364 18.5299 7.18182 18.3471 7.18182H17.6162C17.4335 7.18182 17.4335 7.36364 17.4335 7.54545V18.8182L13.0481 13C12.8654 12.8182 12.6827 12.8182 12.6827 13L11.9518 13.3636L11.7691 13.5455V13.7273L17.2508 21V30.2727L9.02818 21.3636C8.84546 21.1818 8.66273 21.1818 8.66273 21.3636L8.11456 21.9091L7.93184 22.0909V22.2727L17.4335 32.4545V43.3636L7.01821 32.0909C6.83549 31.9091 6.65276 31.9091 6.47004 32.0909L5.92187 32.6364L5.73914 32.8182V33L17.4335 45.3636V53C17.0681 53 16.7026 53 16.5199 53H16.3372C12.6827 53 10.6727 53.1818 6.83549 45.7273C-0.838941 30.8182 3.36372 19.9091 6.47004 14.8182C13.2308 3.90909 15.9717 2.45455 17.4335 2.45455C19.078 2.45455 21.6362 3.90909 28.5797 15C31.686 20.0909 35.8887 31 28.2143 45.9091C24.377 53.1818 22.3671 53.1818 18.7126 53.1818V45.3636Z" fill="white" stroke="white"/>
</svg>
