<svg width="42" height="40" viewBox="0 0 42 40" fill="none" xmlns="http://www.w3.org/2000/svg">
<path d="M5.83852 11.8161L5.62107 11.8875C2.24901 12.9934 -0.00971848 16.1807 3.14403e-05 19.8191C0.00426315 23.4582 2.27701 26.6346 5.65332 27.7251L5.86947 27.7948C6.46126 27.9855 6.81346 28.6069 6.68228 29.2277L6.63411 29.4558C5.88151 32.9989 7.44139 36.5986 10.5169 38.4142C11.7512 39.144 13.1506 39.5294 14.5647 39.5294C16.6031 39.5294 18.5481 38.7593 20.0399 37.3613L20.2089 37.2036C20.6665 36.7749 21.3693 36.7749 21.8273 37.2036L21.9953 37.361C24.589 39.7832 28.3924 40.2126 31.4577 38.4269L31.558 38.3718C34.5911 36.5718 36.1439 32.9694 35.3848 29.4296L35.3356 29.2029C35.2018 28.5811 35.5534 27.9573 36.1458 27.7656L36.3633 27.6953C39.7347 26.599 42 23.4097 42 19.758V19.6833C41.9798 16.0489 39.7012 12.8732 36.3301 11.7893L36.115 11.7207C35.5228 11.5313 35.1696 10.9108 35.2992 10.2897L35.3467 10.0616C36.0935 6.5199 34.5248 2.92517 31.4441 1.11428C28.3565 -0.69806 24.5314 -0.270025 21.9259 2.18253L21.7582 2.34024C21.3015 2.77 20.5991 2.77233 20.1394 2.3449L19.9708 2.18821C18.477 0.801256 16.5512 0.0364262 14.549 0.0364262C13.1173 0.0364262 11.6991 0.43184 10.4484 1.1797C7.37388 3.00843 5.82673 6.6128 6.59531 10.1509L6.64446 10.377C6.77987 10.9978 6.43092 11.6223 5.83912 11.8163L5.83852 11.8161ZM15.1359 17.7157C14.8811 17.8934 14.6021 18.0367 14.2954 18.1214C14.0562 18.1868 13.813 18.2194 13.5721 18.2194C13.0914 18.2194 12.6164 18.0904 12.1884 17.837C11.5462 17.4569 11.0862 16.8438 10.8945 16.11C10.7028 15.3763 10.8011 14.6097 11.1722 13.9519C11.9375 12.594 13.6402 12.1275 14.9648 12.9111C15.6074 13.2905 16.067 13.9043 16.2587 14.6381C16.3407 14.9521 16.359 15.2715 16.3362 15.5862L19.7996 17.6343V13.5448C18.8687 13.085 18.2232 12.1115 18.2232 10.9843C18.2232 9.41594 19.4686 8.14037 21.0001 8.14037C22.5314 8.14037 23.7771 9.41594 23.7771 10.9843C23.7771 12.1118 23.1316 13.085 22.2006 13.5448V17.6346L25.6641 15.5866C25.6413 15.2715 25.6595 14.9524 25.7416 14.6384C25.9333 13.9046 26.3929 13.2911 27.0355 12.9114C27.6777 12.532 28.4261 12.4306 29.1425 12.627C29.859 12.8234 30.4576 13.2941 30.8281 13.9519C31.1995 14.61 31.2975 15.3763 31.1058 16.11C30.914 16.8438 30.4538 17.4569 29.8119 17.837C29.3838 18.0897 28.9089 18.2194 28.4281 18.2194C28.1863 18.2194 27.9438 18.1871 27.7048 18.1214C27.3982 18.0374 27.1192 17.8934 26.8643 17.716L23.4009 19.7641L26.8643 21.8121C27.1192 21.6344 27.3982 21.4911 27.7048 21.4067C28.4213 21.2097 29.1697 21.311 29.8119 21.6911C30.4541 22.0712 30.9138 22.6843 31.1058 23.4181C31.2975 24.1519 31.1996 24.9184 30.8281 25.5762C30.4577 26.2343 29.8584 26.7048 29.1426 26.9011C28.9033 26.9665 28.6605 26.9991 28.4196 26.9991C27.9385 26.9991 27.4635 26.8701 27.0355 26.6167C26.393 26.2366 25.9333 25.6235 25.7416 24.8897C25.6596 24.5757 25.6414 24.2563 25.6641 23.9416L22.2007 21.8935V25.9833C23.1317 26.4431 23.7772 27.4166 23.7772 28.5439C23.7772 30.1122 22.5317 31.3877 21.0002 31.3877C19.4689 31.3877 18.2232 30.1122 18.2232 28.5439C18.2232 27.4163 18.8687 26.4431 19.7997 25.9833V21.8938L16.3362 23.9419C16.359 24.257 16.3408 24.576 16.2587 24.8901C16.067 25.6239 15.6074 26.2373 14.9648 26.6171C14.529 26.8748 14.0521 26.9975 13.5811 26.9975C12.6209 26.9975 11.6856 26.4874 11.1716 25.5759C10.8005 24.9177 10.7022 24.1515 10.894 23.4178C11.0857 22.6839 11.546 22.0708 12.1879 21.6908C12.8301 21.3104 13.5794 21.21 14.2949 21.4064C14.6016 21.4904 14.8805 21.6344 15.1354 21.8121L18.5989 19.764L15.1359 17.7157Z" fill="black"/>
<path d="M5.83852 11.8161L5.62107 11.8875C2.24901 12.9934 -0.00971848 16.1807 3.14403e-05 19.8191C0.00426315 23.4582 2.27701 26.6346 5.65332 27.7251L5.86947 27.7948C6.46126 27.9855 6.81346 28.6069 6.68228 29.2277L6.63411 29.4558C5.88151 32.9989 7.44139 36.5986 10.5169 38.4142C11.7512 39.144 13.1506 39.5294 14.5647 39.5294C16.6031 39.5294 18.5481 38.7593 20.0399 37.3613L20.2089 37.2036C20.6665 36.7749 21.3693 36.7749 21.8273 37.2036L21.9953 37.361C24.589 39.7832 28.3924 40.2126 31.4577 38.4269L31.558 38.3718C34.5911 36.5718 36.1439 32.9694 35.3848 29.4296L35.3356 29.2029C35.2018 28.5811 35.5534 27.9573 36.1458 27.7656L36.3633 27.6953C39.7347 26.599 42 23.4097 42 19.758V19.6833C41.9798 16.0489 39.7012 12.8732 36.3301 11.7893L36.115 11.7207C35.5228 11.5313 35.1696 10.9108 35.2992 10.2897L35.3467 10.0616C36.0935 6.5199 34.5248 2.92517 31.4441 1.11428C28.3565 -0.69806 24.5314 -0.270025 21.9259 2.18253L21.7582 2.34024C21.3015 2.77 20.5991 2.77233 20.1394 2.3449L19.9708 2.18821C18.477 0.801256 16.5512 0.0364262 14.549 0.0364262C13.1173 0.0364262 11.6991 0.43184 10.4484 1.1797C7.37388 3.00843 5.82673 6.6128 6.59531 10.1509L6.64446 10.377C6.77987 10.9978 6.43092 11.6223 5.83912 11.8163L5.83852 11.8161ZM15.1359 17.7157C14.8811 17.8934 14.6021 18.0367 14.2954 18.1214C14.0562 18.1868 13.813 18.2194 13.5721 18.2194C13.0914 18.2194 12.6164 18.0904 12.1884 17.837C11.5462 17.4569 11.0862 16.8438 10.8945 16.11C10.7028 15.3763 10.8011 14.6097 11.1722 13.9519C11.9375 12.594 13.6402 12.1275 14.9648 12.9111C15.6074 13.2905 16.067 13.9043 16.2587 14.6381C16.3407 14.9521 16.359 15.2715 16.3362 15.5862L19.7996 17.6343V13.5448C18.8687 13.085 18.2232 12.1115 18.2232 10.9843C18.2232 9.41594 19.4686 8.14037 21.0001 8.14037C22.5314 8.14037 23.7771 9.41594 23.7771 10.9843C23.7771 12.1118 23.1316 13.085 22.2006 13.5448V17.6346L25.6641 15.5866C25.6413 15.2715 25.6595 14.9524 25.7416 14.6384C25.9333 13.9046 26.3929 13.2911 27.0355 12.9114C27.6777 12.532 28.4261 12.4306 29.1425 12.627C29.859 12.8234 30.4576 13.2941 30.8281 13.9519C31.1995 14.61 31.2975 15.3763 31.1058 16.11C30.914 16.8438 30.4538 17.4569 29.8119 17.837C29.3838 18.0897 28.9089 18.2194 28.4281 18.2194C28.1863 18.2194 27.9438 18.1871 27.7048 18.1214C27.3982 18.0374 27.1192 17.8934 26.8643 17.716L23.4009 19.7641L26.8643 21.8121C27.1192 21.6344 27.3982 21.4911 27.7048 21.4067C28.4213 21.2097 29.1697 21.311 29.8119 21.6911C30.4541 22.0712 30.9138 22.6843 31.1058 23.4181C31.2975 24.1519 31.1996 24.9184 30.8281 25.5762C30.4577 26.2343 29.8584 26.7048 29.1426 26.9011C28.9033 26.9665 28.6605 26.9991 28.4196 26.9991C27.9385 26.9991 27.4635 26.8701 27.0355 26.6167C26.393 26.2366 25.9333 25.6235 25.7416 24.8897C25.6596 24.5757 25.6414 24.2563 25.6641 23.9416L22.2007 21.8935V25.9833C23.1317 26.4431 23.7772 27.4166 23.7772 28.5439C23.7772 30.1122 22.5317 31.3877 21.0002 31.3877C19.4689 31.3877 18.2232 30.1122 18.2232 28.5439C18.2232 27.4163 18.8687 26.4431 19.7997 25.9833V21.8938L16.3362 23.9419C16.359 24.257 16.3408 24.576 16.2587 24.8901C16.067 25.6239 15.6074 26.2373 14.9648 26.6171C14.529 26.8748 14.0521 26.9975 13.5811 26.9975C12.6209 26.9975 11.6856 26.4874 11.1716 25.5759C10.8005 24.9177 10.7022 24.1515 10.894 23.4178C11.0857 22.6839 11.546 22.0708 12.1879 21.6908C12.8301 21.3104 13.5794 21.21 14.2949 21.4064C14.6016 21.4904 14.8805 21.6344 15.1354 21.8121L18.5989 19.764L15.1359 17.7157Z" fill="url(#paint0_linear_403_19)"/>
<defs>
<linearGradient id="paint0_linear_403_19" x1="9.99398" y1="-1.28461e-05" x2="44.9998" y2="1.66288" gradientUnits="userSpaceOnUse">
<stop stop-color="#FF460C"/>
<stop offset="1" stop-color="#EFB09C"/>
</linearGradient>
</defs>
</svg>
