<svg width="34" height="40" viewBox="0 0 34 40" fill="none" xmlns="http://www.w3.org/2000/svg">
<path d="M29.907 28.9507C28.9882 29.1221 27.9859 29.2934 26.8164 29.2934C24.8117 29.2934 22.7235 28.6938 20.5517 27.409C18.8811 26.3812 17.7952 24.8394 17.7117 20.3854C19.7164 19.2719 21.3035 18.6724 22.64 18.6724C23.4753 18.6724 24.227 18.9293 25.0623 19.3576C25.647 19.7002 26.2317 20.1285 26.7329 20.4711C29.5729 22.6124 30.3247 24.9251 30.9929 26.8094C31.2435 27.409 31.4106 28.0086 31.6612 28.6081C31.16 28.7794 30.4917 28.8651 29.907 28.9507ZM18.1293 35.9743C17.7117 36.4882 17.294 36.9165 16.9599 37.4304C16.6258 36.9165 16.2082 36.4026 15.7905 35.9743C14.5376 34.4325 13.1176 32.8051 12.6164 29.5503C13.1176 29.2934 13.6187 29.0364 14.0364 28.7794C15.3729 28.0086 16.2917 26.8951 16.8764 25.3533C17.4611 26.8951 18.3799 28.0086 19.7164 28.7794C20.2176 29.0364 20.7188 29.2934 21.1364 29.5503C20.8023 32.7195 19.3823 34.4325 18.1293 35.9743ZM4.09634 28.9507C3.42811 28.8651 2.8434 28.6938 2.25869 28.6938C2.50928 28.1799 2.75987 27.5803 2.92693 26.8951C3.67869 24.6681 4.68105 21.9272 8.85754 19.3576C9.69284 18.8437 10.4446 18.6724 11.2799 18.6724C12.6164 18.6724 14.1199 19.1863 16.2082 20.3854C16.1246 24.8394 15.0387 26.3812 13.3681 27.409C11.1964 28.6938 9.19166 29.2934 7.10342 29.2934C6.01753 29.379 5.01517 29.1221 4.09634 28.9507ZM2.92693 13.0193C2.67634 12.4197 2.50928 11.8201 2.25869 11.3062C2.8434 11.3062 3.42811 11.1349 4.09634 11.0492C6.01753 10.7066 8.10577 10.2784 11.1128 11.4775C11.0293 11.9914 11.0293 12.591 11.0293 13.1049C11.0293 14.7323 11.447 16.0171 12.4493 17.3019C12.0317 17.2163 11.6976 17.2163 11.3634 17.2163C10.2775 17.2163 9.19166 17.4732 8.1893 18.1585C7.68812 18.4154 7.27047 18.758 6.7693 19.1006C4.34693 16.9593 3.59516 14.9036 2.92693 13.0193ZM15.874 4.0257C16.2917 3.51178 16.7093 3.08351 17.0435 2.56959C17.3776 3.08351 17.7952 3.59743 18.2129 4.0257C19.7164 5.82441 21.5541 8.05139 21.5541 13.1049C21.5541 15.1606 20.8023 16.8737 17.0435 19.1006C13.2846 16.788 12.5329 15.0749 12.5329 13.1049C12.5329 8.05139 14.3705 5.82441 15.874 4.0257ZM29.907 10.9636C30.4917 11.0493 31.16 11.2206 31.7447 11.2206C31.4941 11.7345 31.2435 12.334 31.0765 13.0193C30.4082 14.9036 29.6565 16.9593 27.2341 19.015C26.8164 18.6724 26.3153 18.4154 25.8141 18.0728C24.7282 17.4732 23.7258 17.1306 22.64 17.1306C22.3058 17.1306 21.8882 17.1306 21.5541 17.2163C22.5564 15.9315 22.9741 14.561 22.9741 13.0193C22.9741 12.4197 22.9741 11.9058 22.8905 11.3062C25.8976 10.2784 27.9859 10.621 29.907 10.9636ZM32.4129 26.4668C31.7447 24.6681 30.9929 22.2698 28.4035 20.0428C30.9929 17.8158 31.7447 15.5032 32.4129 13.6188C32.8306 12.5054 33.0812 11.5632 33.7494 10.9636C34 10.7066 34.0835 10.364 33.8329 10.0214C33.6659 9.6788 33.3318 9.59315 32.9976 9.6788C32.1623 9.93576 31.327 9.76445 30.1576 9.50749C28.2364 9.16488 25.8976 8.73662 22.7235 9.85011C22.0552 6.42398 20.5517 4.53961 19.2988 3.08351C18.547 2.14133 17.9623 1.4561 17.7117 0.599572C17.6282 0.256959 17.294 0 16.9599 0C16.6258 0 16.2917 0.256959 16.2082 0.599572C15.9576 1.4561 15.3729 2.14133 14.6211 3.08351C13.3681 4.53961 11.7811 6.50964 11.1964 9.93576C8.02224 8.82227 5.68341 9.25054 3.76222 9.59315C2.59281 9.85011 1.67398 9.93576 0.922212 9.76445C0.588093 9.6788 0.253974 9.85011 0.0869143 10.1071C-0.0801453 10.2784 0.00338449 10.7066 0.253974 10.9636C0.838682 11.5632 1.1728 12.4197 1.59045 13.6188C2.25869 15.5032 3.09399 17.8158 5.59988 20.0428C3.01046 22.2698 2.17516 24.6681 1.59045 26.4668C1.1728 27.5803 0.922212 28.5225 0.337504 29.0364C0.00338449 29.2934 -0.0801453 29.636 0.0869143 29.9786C0.253974 30.3212 0.588093 30.4069 0.922212 30.3212C1.1728 30.2355 1.42339 30.2355 1.75751 30.2355C2.34222 30.2355 3.01046 30.3212 3.76222 30.4925C4.76458 30.6638 5.85047 30.9208 7.10342 30.9208C8.43989 30.9208 9.8599 30.6638 11.1964 30.1499C11.7811 33.576 13.3681 35.4604 14.6211 36.9165C15.3729 37.8587 15.9576 38.5439 16.2082 39.4004C16.2917 39.743 16.6258 40 16.9599 40C17.294 40 17.6282 39.743 17.7117 39.4004C17.9623 38.5439 18.547 37.8587 19.2988 36.9165C20.5517 35.3747 22.1388 33.4904 22.7235 30.1499C24.1435 30.6638 25.48 30.9208 26.8164 30.9208C28.0694 30.9208 29.2388 30.7495 30.1576 30.4925C30.9094 30.3212 31.5776 30.2355 32.1623 30.2355C32.4965 30.2355 32.7471 30.2355 32.9976 30.3212C33.0812 30.3212 33.1647 30.3212 33.2482 30.3212C33.6659 30.3212 34 29.9786 34 29.5503C34 29.2934 33.9165 29.1221 33.7494 28.9507C33.1647 28.4368 32.8306 27.4946 32.4129 26.4668Z" fill="white"/>
</svg>
