<svg width="108" height="107" viewBox="0 0 108 107" fill="none" xmlns="http://www.w3.org/2000/svg">
<g filter="url(#filter0_d_12_2305)">
<circle cx="54" cy="48.5" r="45.5" fill="#D9D9D9"/>
<circle cx="54" cy="48.5" r="45.5" fill="#00D2D3"/>
<circle cx="54" cy="48.5" r="45.5" fill="#00D2D3"/>
<circle cx="54" cy="48.5" r="45.5" fill="url(#paint0_linear_12_2305)"/>
<circle cx="54" cy="48.5" r="45.5" fill="white" fill-opacity="0.2"/>
<circle cx="54" cy="48.5" r="42" stroke="url(#paint1_linear_12_2305)" stroke-width="7"/>
</g>
<path d="M36.5 47L49.5 60L77 32.5" stroke="white" stroke-opacity="0.9" stroke-width="12"/>
<defs>
<filter id="filter0_d_12_2305" x="0.5" y="0" width="107" height="107" filterUnits="userSpaceOnUse" color-interpolation-filters="sRGB">
<feFlood flood-opacity="0" result="BackgroundImageFix"/>
<feColorMatrix in="SourceAlpha" type="matrix" values="0 0 0 0 0 0 0 0 0 0 0 0 0 0 0 0 0 0 127 0" result="hardAlpha"/>
<feOffset dy="5"/>
<feGaussianBlur stdDeviation="4"/>
<feComposite in2="hardAlpha" operator="out"/>
<feColorMatrix type="matrix" values="0 0 0 0 0.340278 0 0 0 0 0.727315 0 0 0 0 0.729167 0 0 0 0.15 0"/>
<feBlend mode="normal" in2="BackgroundImageFix" result="effect1_dropShadow_12_2305"/>
<feBlend mode="normal" in="SourceGraphic" in2="effect1_dropShadow_12_2305" result="shape"/>
</filter>
<linearGradient id="paint0_linear_12_2305" x1="53.6654" y1="3.66912" x2="90.2388" y2="10.9728" gradientUnits="userSpaceOnUse">
<stop stop-color="#EFEFEF" stop-opacity="0.6"/>
<stop offset="1" stop-color="white" stop-opacity="0.08"/>
</linearGradient>
<linearGradient id="paint1_linear_12_2305" x1="22.6375" y1="4.3" x2="116.135" y2="49.8086" gradientUnits="userSpaceOnUse">
<stop stop-color="#EFEFEF" stop-opacity="0.6"/>
<stop offset="1" stop-color="white" stop-opacity="0.08"/>
</linearGradient>
</defs>
</svg>
