<svg width="36" height="40" viewBox="0 0 36 40" fill="none" xmlns="http://www.w3.org/2000/svg">
<path d="M30.6486 5.02082C23.5946 -1.61316 12.2838 -1.73378 5.22973 5.02082C1.82432 8.15688 0 12.4991 0 17.0826C0 21.6661 1.82432 26.0083 5.22973 29.265L5.47297 29.5062C5.59459 29.6269 5.71622 29.6269 5.71622 29.5062L8.51351 26.8527C8.75676 26.732 9.12162 26.6114 9.24324 26.3702L16.4189 19.495C16.5405 19.3743 16.6622 19.2537 16.6622 19.1331L27.1216 9.12183C27.4865 8.63936 27.6081 8.15688 27.7297 7.67441C30.6486 10.328 31.9865 14.3084 31.9865 17.3238C31.9865 24.6815 25.7838 30.5918 18 30.5918C12.8919 30.5918 8.75676 34.5722 8.75676 39.5175V39.7588C8.75676 39.8794 8.87838 40 9 40H12.4054C12.527 40 12.6486 39.8794 12.6486 39.7588V39.5175C12.6486 36.6227 15.0811 34.331 18.1216 34.331C27.973 34.331 36 26.732 36 17.3238C35.8784 12.4991 34.0541 8.15688 30.6486 5.02082ZM9.72973 38.7938C9.97297 34.5722 13.6216 31.3155 18 31.3155C26.2703 31.3155 32.9595 24.9228 32.9595 16.962C32.9595 13.2228 31.1351 8.2775 26.8784 5.38267C26.1486 4.77958 25.1757 4.1765 24.2027 3.69402C22.3784 2.72908 20.4324 2.60846 19.2162 3.33217C18.6081 3.81464 18.2432 4.53835 18.2432 5.14144C18.1216 4.53835 17.8784 3.93526 17.1486 3.57341C15.9324 2.72908 13.7432 2.72908 11.7973 3.57341C9.97297 4.29711 8.75676 5.62391 8.51351 6.83009C8.39189 7.67441 8.63513 8.2775 9.12162 8.88059C8.63513 8.39812 7.90541 8.2775 7.17568 8.39812C5.71622 8.63936 4.13514 10.0868 3.40541 12.0167C2.67568 13.8259 2.67568 15.6352 3.52703 16.7208C4.01351 17.3238 4.62162 17.6857 5.35135 17.6857C4.74324 17.8063 4.13514 18.0475 3.77027 18.6506C2.91892 19.8568 2.91892 21.9073 3.77027 23.7166C4.5 25.4052 5.71622 26.6114 7.05405 26.8527L5.71622 28.1794C2.67568 25.164 1.09459 21.1836 1.09459 16.962C1.09459 12.7404 2.91892 8.63936 6.08108 5.62391C12.6486 -0.648219 23.473 -0.648219 30.0405 5.62391C33.2027 8.63936 35.027 12.7404 35.027 16.962C35.027 25.7671 27.4865 33.0042 18.2432 33.0042C14.8378 33.0042 12.0405 35.5371 11.7973 38.6732H9.72973V38.7938ZM26.3919 8.39812L19.4595 14.9115H19.3378C19.3378 14.9115 19.3378 14.9115 19.3378 14.7909V5.14144C19.3378 4.77958 19.4595 4.41773 19.8243 4.29711C20.5541 3.81464 22.1351 3.81464 23.8378 4.65897C25.4189 5.50329 26.6351 6.227 26.7568 6.95071C26.8784 7.43318 26.7568 7.91565 26.3919 8.39812ZM17.2703 14.9115C17.2703 14.9115 17.2703 15.0321 17.2703 14.9115C17.1486 15.0321 17.1486 15.0321 17.1486 14.9115L9.85135 8.15688C9.48649 7.91565 9.36487 7.5538 9.48649 7.07132C9.72973 6.10638 10.7027 5.14144 12.2838 4.41773C13.1351 4.05588 13.9865 3.93526 14.7162 3.93526C15.4459 3.93526 16.1757 4.05588 16.6622 4.41773C17.027 4.65897 17.2703 5.02082 17.2703 5.38267C17.2703 6.34762 17.2703 12.3785 17.2703 14.9115ZM4.62162 23.3547C3.77027 21.5455 4.01351 19.9774 4.5 19.2537C4.74324 18.8919 5.10811 18.6506 5.59459 18.6506V18.4094V18.6506C6.56757 18.6506 12.7703 18.6506 15.5676 18.6506L7.90541 26.0083C7.66216 26.0083 7.54054 26.1289 7.2973 26.0083C6.32432 25.7671 5.35135 24.8021 4.62162 23.3547ZM15.6892 16.4795C15.6892 16.6001 15.6892 16.6001 15.6892 16.4795L5.47297 16.6001C4.98649 16.6001 4.62162 16.4795 4.37838 15.997C3.77027 15.1527 3.77027 13.7053 4.37838 12.2579C5.10811 10.5692 6.44595 9.6043 7.41892 9.36306C7.54054 9.36306 7.66216 9.36306 7.78378 9.36306C8.14865 9.36306 8.39189 9.48368 8.63513 9.72492C9.24324 10.328 13.7432 14.5496 15.6892 16.4795ZM15.5676 17.5651C14.9595 17.5651 14.1081 17.5651 13.1351 17.5651H15.5676C15.9324 17.5651 16.4189 17.3238 16.5405 16.8414C16.6622 16.4795 16.6622 15.997 16.2973 15.6352C15.5676 14.9115 14.5946 14.0672 13.6216 13.1022L16.2973 15.6352C16.5405 15.8764 16.7838 15.997 17.027 15.997C17.1486 15.997 17.2703 15.997 17.5135 15.8764C17.8784 15.7558 18.2432 15.2733 18.2432 14.9115C18.2432 13.5847 18.2432 11.4136 18.2432 9.48368V14.9115C18.2432 15.2733 18.3649 15.5146 18.6081 15.7558L16.2973 17.9269C16.1757 17.6857 15.9324 17.5651 15.5676 17.5651Z" fill="white"/>
</svg>
